{
    "MACHINEKEY":"16 AES key here",
    "PORT":":8080",
    "MONGO":"127.0.0.1:27017",
    "HOSTURL":"http://localhost",
    "MAILSMTP":"smtp.gmail.com:587",
    "MAILFROM":"abcdef@gmail.com",
    "MAILPWD":"abcdef12345"
}